…
### for co-morbid


```r
options(scipen = 999)
crude_b_co <- PUP2 %>% select(diabetes, hypertension, systolic, diastolic, tenderness,
                                guarding, PULP, trad_med_steroid, NSAIDS, admission_to_op_hrs,
                              hemoglobin, platelet) %>%
  map(~glm(oc2 ~ .x, family = binomial, data = PUP2)) %>%
  map_dfr(~tidy(., conf.int = TRUE), .id = 'variable')
crude_b_co
```

```
## # A tibble: 24 x 8
##    variable  term   estimate std.error statistic p.value conf.low conf.high
##    <chr>     <chr>     <dbl>     <dbl>     <dbl>   <dbl>    <dbl>     <dbl>
##  1 diabetes  (Inte~  -0.902    0.224      -4.03  5.69e-5  -1.36    -0.475  
##  2 diabetes  .xyes    0.565    0.471       1.20  2.30e-1  -0.377    1.48   
##  3 hyperten~ (Inte~  -1.03     0.260      -3.95  7.73e-5  -1.56    -0.537  
##  4 hyperten~ .xyes    0.624    0.401       1.56  1.19e-1  -0.163    1.41   
##  5 systolic  (Inte~   0.919    1.09        0.845 3.98e-1  -1.18     3.12   
##  6 systolic  .x      -0.0134   0.00851    -1.57  1.16e-1  -0.0308   0.00281
##  7 diastolic (Inte~   0.630    1.04        0.604 5.46e-1  -1.41     2.72   
##  8 diastolic .x      -0.0198   0.0145     -1.36  1.73e-1  -0.0491   0.00814
##  9 tenderne~ (Inte~  -0.916    0.242      -3.79  1.48e-4  -1.41    -0.457  
## 10 tenderne~ .xloc~   0.420    0.416       1.01  3.13e-1  -0.407    1.23   
## # ... with 14 more rows
```

```r
crude_or_co <- PUP2 %>% select(diabetes, hypertension, systolic, diastolic, tenderness,
                                guarding, PULP, trad_med_steroid, NSAIDS, admission_to_op_hrs,
                               hemoglobin, platelet) %>%
  map(~glm(oc2 ~ .x, family = binomial, data = PUP2)) %>%
  map_dfr(~tidy(., exponentiate = TRUE, conf.int = TRUE), .id = 'variable')
crude_or_co
```

```
## # A tibble: 24 x 8
##    variable  term   estimate std.error statistic p.value conf.low conf.high
##    <chr>     <chr>     <dbl>     <dbl>     <dbl>   <dbl>    <dbl>     <dbl>
##  1 diabetes  (Inte~    0.406   0.224      -4.03  5.69e-5    0.258     0.622
##  2 diabetes  .xyes     1.76    0.471       1.20  2.30e-1    0.686     4.41 
##  3 hyperten~ (Inte~    0.357   0.260      -3.95  7.73e-5    0.209     0.585
##  4 hyperten~ .xyes     1.87    0.401       1.56  1.19e-1    0.850     4.11 
##  5 systolic  (Inte~    2.51    1.09        0.845 3.98e-1    0.307    22.6  
##  6 systolic  .x        0.987   0.00851    -1.57  1.16e-1    0.970     1.00 
##  7 diastolic (Inte~    1.88    1.04        0.604 5.46e-1    0.245    15.1  
##  8 diastolic .x        0.980   0.0145     -1.36  1.73e-1    0.952     1.01 
##  9 tenderne~ (Inte~    0.4     0.242      -3.79  1.48e-4    0.245     0.633
## 10 tenderne~ .xloc~    1.52    0.416       1.01  3.13e-1    0.666     3.43 
## # ... with 14 more rows
```
…
### for co-clinical


```r
options(scipen = 999)
crude_b_clin <- PUP2 %>% select(age, ASA, gender, vomiting, nausea, fever, diarrhea, malena,
                           onset_more_24_hrs, degree_perforation) %>%
  map(~glm(oc2 ~ .x, family = binomial, data = PUP2)) %>%
  map_dfr(~tidy(., conf.int = TRUE), .id = 'variable')
crude_b_clin
```

```
## # A tibble: 21 x 8
##    variable term    estimate std.error statistic p.value conf.low conf.high
##    <chr>    <chr>      <dbl>     <dbl>     <dbl>   <dbl>    <dbl>     <dbl>
##  1 age      (Inter~  -2.25      0.784     -2.86  4.18e-3 -3.90    -0.794   
##  2 age      .x        0.0237    0.0120     1.98  4.79e-2  0.00109  0.0484  
##  3 ASA      (Inter~  -1.61      0.546     -2.94  3.23e-3 -2.72    -0.563   
##  4 ASA      .x        0.522     0.315      1.66  9.77e-2 -0.0942   1.15    
##  5 gender   (Inter~  -0.0800    0.400     -0.200 8.42e-1 -0.879    0.711   
##  6 gender   .xmale   -0.910     0.462     -1.97  4.86e-2 -1.82     0.000767
##  7 vomiting (Inter~  -0.693     0.240     -2.89  3.90e-3 -1.18    -0.233   
##  8 vomiting .xyes    -0.256     0.416     -0.615 5.39e-1 -1.10     0.547   
##  9 nausea   (Inter~  -0.801     0.203     -3.94  8.19e-5 -1.21    -0.411   
## 10 nausea   .xyes     0.291     0.758      0.383 7.02e-1 -1.34     1.75    
## # ... with 11 more rows
```

```r
crude_or_clin <- PUP2 %>% select(age, ASA, gender, vomiting, nausea, fever, diarrhea, malena,
                           onset_more_24_hrs, degree_perforation) %>% 
  map(~glm(oc2 ~ .x, family = binomial, data = PUP2)) %>%
  map_dfr(~tidy(., exponentiate = TRUE, conf.int = TRUE), .id = 'variable')
crude_or_clin
```

```
## # A tibble: 21 x 8
##    variable term    estimate std.error statistic p.value conf.low conf.high
##    <chr>    <chr>      <dbl>     <dbl>     <dbl>   <dbl>    <dbl>     <dbl>
##  1 age      (Inter~    0.106    0.784     -2.86  4.18e-3   0.0203     0.452
##  2 age      .x         1.02     0.0120     1.98  4.79e-2   1.00       1.05 
##  3 ASA      (Inter~    0.201    0.546     -2.94  3.23e-3   0.0662     0.570
##  4 ASA      .x         1.69     0.315      1.66  9.77e-2   0.910      3.17 
##  5 gender   (Inter~    0.923    0.400     -0.200 8.42e-1   0.415      2.04 
##  6 gender   .xmale     0.402    0.462     -1.97  4.86e-2   0.162      1.00 
##  7 vomiting (Inter~    0.5      0.240     -2.89  3.90e-3   0.308      0.793
##  8 vomiting .xyes      0.774    0.416     -0.615 5.39e-1   0.334      1.73 
##  9 nausea   (Inter~    0.449    0.203     -3.94  8.19e-5   0.298      0.663
## 10 nausea   .xyes      1.34     0.758      0.383 7.02e-1   0.263      5.76 
## # ... with 11 more rows
```
…
