Regression Analysis in Health and Medicine Using R
…
write_csv(multi_confirm, 'multivar_final.csv')

8.6 Model checking

Making predictions

log-odds

probability

#augment(model_multivar, type = c('link', 'response'))
augment(model_multivar, type.predict = 'link')

## # A tibble: 121 x 18
##    oc2     age gender epigastric_pain onset_more_24_h~ diabetes NSAIDS
##    <fct> <dbl> <chr>  <chr>           <chr>            <chr>    <chr> 
##  1 alive    42 male   yes             no               no       no    
##  2 alive    66 female yes             no               no       no    
##  3 alive    67 male   yes             no               no       yes   
##  4 alive    19 male   yes             yes              no       no    
##  5 alive    77 male   yes             yes              no       no    
##  6 alive    39 male   yes             yes              no       no    
##  7 dead     62 female yes             yes              yes      no    
##  8 alive    71 female yes             no               no       no    
##  9 alive    69 male   yes             no               yes      yes   
## 10 alive    97 female yes             yes              no       yes   
## # ... with 111 more rows, and 11 more variables: factor.ASA. <fct>,
## #   PULP <dbl>, perforation <dbl>, hemoglobin <dbl>, .fitted <dbl>,
## #   .se.fit <dbl>, .resid <dbl>, .hat <dbl>, .sigma <dbl>, .cooksd <dbl>,
## #   .std.resid <dbl>

augment(model_multivar, type.predict = 'response')

## # A tibble: 121 x 18
##    oc2     age gender epigastric_pain onset_more_24_h~ diabetes NSAIDS
##    <fct> <dbl> <chr>  <chr>           <chr>            <chr>    <chr> 
##  1 alive    42 male   yes             no               no       no    
##  2 alive    66 female yes             no               no       no    
##  3 alive    67 male   yes             no               no       yes   
##  4 alive    19 male   yes             yes              no       no    
##  5 alive    77 male   yes             yes              no       no    
##  6 alive    39 male   yes             yes              no       no    
##  7 dead     62 female yes             yes              yes      no    
##  8 alive    71 female yes             no               no       no    
##  9 alive    69 male   yes             no               yes      yes   
## 10 alive    97 female yes             yes              no       yes   
## # ... with 111 more rows, and 11 more variables: factor.ASA. <fct>,
## #   PULP <dbl>, perforation <dbl>, hemoglobin <dbl>, .fitted <dbl>,
## #   .se.fit <dbl>, .resid <dbl>, .hat <dbl>, .sigma <dbl>, .cooksd <dbl>,
## #   .std.resid <dbl>
…
